{
      "tags": "onap_private_net_id",
      "name": "onap_private_net_id",
      "property": {
        "description": "onap_private_net_id",
        "type": "string"
      },
      "updated-by": "MALAKOV, YURIY <yuriy.malakov@att.com>",
      "sources": {
        "input": {
          "type": "source-input"
        },
        "default": {
          "type": "source-default",
          "properties": {}
        },
        "primary-config-data": {
          "type": "source-rest",
          "properties": {
            "type": "JSON",
            "url-path": "config/GENERIC-RESOURCE-API:services/service/$service-instance-id/service-data/vnfs/vnf/$vnf-id/vnf-data/vnf-topology/vnf-parameters-data/param/onap_private_net_id",
            "path": "/param/0/value",
            "input-key-mapping": {
              "service-instance-id": "service-instance-id",
              "vnf-id": "vnf-id"
            },
            "output-key-mapping": {
              "onap_private_net_id": "value"
            },
            "key-dependencies": [
              "service-instance-id",
              "vnf-id"
            ]
          }
        }
      }
    
  }