{
  "name" : "unprotected_private_net_cidr",
  "tags" : "unprotected_private_net_cidr",
  "updated-by" : "Singal, Kapil <ks220y@att.com>",
  "property" : {
    "description" : "unprotected_private_net_cidr",
    "type" : "string"
  },
  "sources" : {
    "processor-db" : {
      "type" : "source-processor-db",
      "properties" : {
        "type" : "SQL",
        "query" : "select sdnctl.IPAM_IP_POOL.prefix as prefix from sdnctl.IPAM_IP_POOL where description = \"unprotected\"",
        "output-key-mapping" : {
          "unprotected_private_net_cidr" : "prefix"
        }      
	  }
    }
  }
}