{
  "tags": "vlb_onap_private_ip_0",
  "name": "vlb_onap_private_ip_0",
  "property": {
    "description": "vlb_onap_private_ip_0",
    "type": "string"
  },
  "updated-by": "MALAKOV, YURIY <yuriy.malakov@att.com>",
  "sources": {
    "input": {
      "type": "source-input"
    },
    "default": {
      "type": "source-default",
      "properties": {}
    },
    "primary-config-data": {
      "type": "source-rest",
      "properties": {
        "type": "JSON",
        "url-path": "config/GENERIC-RESOURCE-API:services/service/$service-instance-id/service-data/vnfs/vnf/$vnf-id/vnf-data/vnf-topology/vnf-parameters-data/param/vlb_onap_private_ip_0",
        "path": "/param/0/value",
        "input-key-mapping": {
          "service-instance-id": "service-instance-id",
          "vnf-id": "vnf-id"
        },
        "output-key-mapping": {
          "private2-prefix-id": "value"
        },
        "key-dependencies": [
          "service-instance-id",
          "vnf-id"
        ]
      }
    }
  }
}