{
  "tags": "vnfc-model-invariant-uuid",
  "name": "vnfc-model-invariant-uuid",
  "property": {
    "description": "vnfc-model-invariant-uuid",
    "type": "string"
  },
  "updated-by": "MALAKOV, YURIY <yuriy.malakov@att.com>",
  "sources": {
    "input": {
      "type": "source-input"
    },
    "default": {
      "type": "source-default",
      "properties": {}
    },
    "processor-db": {
      "type": "source-processor-db",
      "properties": {
        "endpoint-selector": "dynamic-db-source",
        "type": "SQL",
        "query": "select VFC_MODEL.invariant_uuid as vfc_invariant_uuid from VFC_MODEL where customization_uuid=:vfccustomizationuuid",
        "input-key-mapping": {
          "vfccustomizationuuid": "vfccustomizationuuid"
        },
        "output-key-mapping": {
          "vnfc-model-invariant-uuid": "vfc_invariant_uuid"
        },
        "key-dependencies": [
          "vfccustomizationuuid"
        ]
      }
    }
  }
}