{
  "name" : "vf-module-label",
  "tags" : "vf-module-label",
  "updated-by" : "Singal, Kapil <ks220y@att.com>",
  "property" : {
    "description" : "vf-module-label",
    "type" : "string"
  },
  "sources" : {
    "primary-db" : {
      "type" : "source-processor-db",
      "properties" : {
        "type" : "SQL",
        "query" : "select sdnctl.VF_MODULE_MODEL.vf_module_label as vf_module_label from sdnctl.VF_MODULE_MODEL where sdnctl.VF_MODULE_MODEL.customization_uuid=:customizationid",
        "input-key-mapping" : {
          "customizationid" : "vf-module-model-customization-uuid"
        },
        "output-key-mapping" : {
          "vf-module-label" : "vf_module_label"
        },
        "key-dependencies" : [ "vf-module-model-customization-uuid" ]
      }
    }
  }
}