{
  "name" : "vf-nf-code",
  "tags" : "vf-nf-code",
  "updated-by" : "Singal, Kapil <ks220y@att.com>",
  "property" : {
    "description" : "vf-nf-code",
    "type" : "string"
  },
  "sources" : {
    "primary-db" : {
      "type" : "source-processor-db",
      "properties" : {
        "type" : "SQL",
        "query" : "select sdnctl.VF_MODEL.nf_code as vf_nf_code from sdnctl.VF_MODEL where sdnctl.VF_MODEL.customization_uuid=:customizationid",
        "input-key-mapping" : {
          "customizationid" : "vnf-model-customization-uuid"
        },
        "output-key-mapping" : {
          "vf-nf-code" : "vf_nf_code"
        },
        "key-dependencies" : [ "vnf-model-customization-uuid" ]
      }
    }
  }
}