{
  "name" : "vfccustomizationuuid",
  "tags" : "vfccustomizationuuid, tosca.datatypes.Root, data_type",
  "updated-by" : "Singal, Kapil <ks220y@att.com>",
  "property" : {
    "description" : "vfccustomizationuuid",
    "type" : "string"
  },
  "sources" : {
    "primary-db" : {
      "type" : "source-processor-db",
      "properties" : {
        "type" : "SQL",
        "query" : "select sdnctl.VF_MODULE_TO_VFC_MAPPING.vfc_customization_uuid as vnf_customid from sdnctl.VF_MODULE_TO_VFC_MAPPING where vm_count = 1 and sdnctl.VF_MODULE_TO_VFC_MAPPING.vf_module_customization_uuid=:vfmodulecustomizationuuid",
        "input-key-mapping" : {
          "vfmodulecustomizationuuid" : "vf-module-model-customization-uuid"
        },
        "output-key-mapping" : {
          "vfccustomizationuuid" : "vnf_customid"
        },
        "key-dependencies" : [ "vf-module-model-customization-uuid" ]
      }
    }
  }
}