{
  "name" : "vm-type",
  "tags" : "vm-type",
  "updated-by" : "Singal, Kapil <ks220y@att.com>",
  "property" : {
    "description" : "vm-type",
    "type" : "string"
  },
  "sources" : {
    "primary-db" : {
      "type" : "source-processor-db",
      "properties" : {
        "type" : "SQL",
        "query" : "select vfc_model.vm_type as vm_type from VFC_MODEL where customization_uuid=:vfccustomizationuuid",
        "input-key-mapping" : {
          "vfccustomizationuuid" : "vfccustomizationuuid"
        },
        "output-key-mapping" : {
          "vm-type" : "vm_type"
        },
        "key-dependencies" : [ "vfccustomizationuuid" ]
      }
    }
  }
}